ArticleID, Entity, Vote, ComputedPolarity
1, Celsius, -0.67,NaN
1, Univers, 0.0,16.969418
1, CMB Bocșa, 0.0,NaN
1, Darmstadt, -0.67,NaN
2, Pământ, 0.0,68.20276
3, Liban, 0.0,20.789387
3, Statele Unite ale Americii, 0.5,18.51171
3, Beirut, 0.165,24.13423
4, Richard Branson, 0.33,30.166826
4, Larry Page, 0.33,29.304476
4, Google, 0.0,35.419167
4, Președintele consiliului de administrație, 0.33,28.797062
5, Pământ, 0.0,65.5523
6, Pământ, 0.0,13.605894
7, Europa, 0.165,44.499878
8, Pământ, 0.0,59.084404
8, Guyana, 0.0,NaN
9, Hopkins, 0.335,189.16495
10, Univers, 0.0,-58.0661
11, Albert Einstein, 0.335,172.65364
12, Univers, 0.0,104.23837
13, Univers, 0.0,37.931126
16, Barack Obama, 0.0,23.255196
16, Nelson, 0.0,27.296558
17, Nelson, 0.165,19.181948
18, Apollo, 0.33,110.300575
19, Venus, 0.0,139.13911
20, Londra, 0.165,148.30873
20, Nature, 0.0,113.835846
21, Univers, 0.0,47.836292
21, Pământ, 0.0,29.650888
22, Obârșia Lotrului, 0.0,23.50003
23, Universitatea Columbia, 0.165,-68.35287
24, Deutsche Bank, -0.5,36.639324
25, Republica Populară Chineză, -0.67,NaN
26, Traian Băsescu, 0.0,23.966051
26, Monitorul Oficial, 0.0,4.890697
26, Lege, -0.165,23.594498
27, Uniunea Social-Liberală, 0.0,128.59631
27, Crin Antonescu, 0.5,119.01828
27, Județul Ilfov, -0.335,105.77606
28, Sistem de administrare a conținutului, 0.0,NaN
28, B1 TV, 0.0,73.884865
28, Consiliul Superior al Magistraturii, -0.33,NaN
28, Adrian Năstase, -0.5,NaN
29, Coface, 0.0,40.00042
29, Economia României, 0.5,110.345726
29, România, 0.0,110.345726
30, Polonia, 0.5,50.89889
30, Est, -0.165,56.091316
30, Europa Centrală, -0.165,43.61789
30, Slovacia, 0.5,49.233364
30, Coface, 0.165,18.536102
31, Turcia, 0.165,135.45529
31, Recep Tayyip Erdoğan, -0.67,121.200516
32, Traian Băsescu, 0.5,43.9002
32, Emil Boc, 0.5,47.424057
32, Ziarul, 0.0,85.18019
32, Frankfurt pe Main, 0.0,45.67883
32, România, 0.5,39.82369
33, Dobrogea, -0.165,35.728542
33, Constanța, 0.0,NaN
33, Tulcea, 0.0,38.43394
34, Capitală, 0.0,110.139626
35, București, 0.0,53.691845
36, Craiova, 0.165,31.91822
36, Miercurea Ciuc, -0.165,67.96957
37, Europa, -0.165,2.2379358
37, România, 0.0,-3.2090538
38, Uniunea Europeană, 0.165,-0.26074922
38, România, 0.165,16.432981
39, Uniunea Europeană, -0.165,66.29763
40, Ucraina, -0.5,16.49616
41, Casa Albă, 0.0,-10.353691
41, Unité, 0.0,-16.365297
41, Statele Unite ale Americii, -0.165,-18.25005
42, CNN, 0.0,22.789547
42, Ohio, -0.335,30.949697
43, CNN, 0.0,27.583803
44, CNN, 0.0,-13.644908
45, Robert Redford, 0.0,-17.390306
46, Robert Redford, 0.0,NaN
46, The New York Times, 0.0,11.3838
46, Utah, 0.0,12.072678
47, Pedro Celestino, -0.5,-9.932868
48, Turcia, 0.5,31.61298
48, The Economist, 0.0,-24.734035
48, Economie, 0.0,-24.734035
49, Europa, 0.0,-4.5905
49, România, -0.5,-23.123735
50, Luxemburg, 0.335,-70.53699
50, Austria, 0.67,-112.830444
50, Danemarca, 0.335,-62.85356
51, Polonia, 0.67,-324.32333
51, Australia, 0.67,-323.49725
51, Noua Zeelandă, 0.67,-323.28336
52, Serbia, 0.165,-105.49856
52, Rusia, 0.165,-110.146454
52, Franța, 0.165,-94.91365
52, Ungaria, 0.165,-54.03
53, Belarus, -0.335,-146.39767
53, Spania, -0.335,-155.45966
53, Croația, -0.67,-154.99397
53, Brazilia, -0.67,-137.84073
53, Turcia, -0.335,-152.21756
53, Ucraina, -0.67,-153.50241
53, Bulgaria, -0.335,-150.15508
53, România, -0.335,-104.79
54, Argentina, -0.665,61.692974
54, Egipt, -0.665,61.89048
54, Grecia, -0.665,NaN
55, Eugen Nicolăescu, 0.0,83.631935
56, Moș Crăciun, 0.0,NaN
56, Google, 0.0,26.082993
57, Aurelian, 0.335,63.397102
58, Moș Crăciun, 0.335,NaN
58, Ferrari, 0.335,71.980644
59, Moș Crăciun, 0.335,133.92514
60, Dubai, 0.67,-10.686153
61, Moș Crăciun, 0.67,123.777725
62, Dumnezeu, 1.0,NaN
62, Isus din Nazaret, 0.5,52.84598
63, Barack Obama, -0.335,32.7335
64, Sorin Oprescu, 0.165,NaN
64, București, 0.0,33.65782
65, Județul Teleorman, 0.0,49.753872
66, Județul Teleorman, 0.0,12.813448
67, Traian Băsescu, -0.335,26.96467
68, Angelina Jolie, -0.165,35.124973
69, Pământ, 0.0,23.960825
70, Poliție, 0.0,70.86069
70, Județul Caraș-Severin, 0.0,53.175327
71, Poliție, 0.0,3.4098673
71, Județul Caraș-Severin, 0.0,-0.616045
72, Județul Caraș-Severin, 0.0,20.911766
72, Mediafax, 0.0,27.112066
73, România, 0.165,8.145326
74, Consiliul Superior al Magistraturii, 0.0,NaN
75, Năstase, Botoșani, 0.0,8.460261
75, Traian Băsescu, -0.5,6.022768
76, Statele Unite ale Americii, 0.0,31.834677
76, Vladimir Putin, 0.165,28.595242
77, Rusia, -0.335,-24.513477
77, Vladimir Putin, -0.335,-23.43326
79, Chevron, -0.67,8.41926
79, Mediafax, 0.0,12.927464
79, Vaslui, 0.0,23.625193
81, Uniunea Democrată Maghiară din România, 0.0,70.80772
82, România, -0.165,102.81023
83, Maria Radu, -0.33,87.0076
84, László Tőkés, 0.165,102.81113
85, Județ, 0.0,14.239872
85, Râul Dâmbovița, 0.0,13.676872
88, Vasile, -0.67,-36.550034
88, Constanța, 0.0,NaN
89, Județul Mehedinți, 0.0,25.818163
89, Bala, Mehedinți, 0.0,NaN
89, Mediafax, 0.0,39.46459
90, Galați, 0.0,34.620224
90, Slobozia, 0.0,NaN
91, Noua, 0.0,41.073105
91, Ungaria, 0.0,44.673637
92, Sărbătoarea, Dolj, 0.33,NaN
92, Moș Crăciun, -0.165,67.78867
92, Ferrari, 0.335,53.6268
93, Sandu, 0.0,80.64302
94, Administrația Națională de Meteorologie, 0.0,15.615511
94, Județul Teleorman, -0.165,-5.4801445
95, Dealurile de Vest, 0.0,107.03157
96, Administrația Națională de Meteorologie, 0.0,65.944176
97, Administrația Națională de Meteorologie, 0.0,7.797419
97, Celsius, 0.0,22.272734
97, Capitală, 0.0,-2.4914937
98, Administrația Națională de Meteorologie, 0.0,7.797419
98, Celsius, 0.0,22.272734
98, Capitală, 0.0,-2.4914937
99, Dealurile de Vest, 0.0,8.113403
100, Lecce, 0.165,145.78226
100, Gabriel Torje, 0.67,143.46016
100, Udinese Calcio, 0.0,103.264854
101, Dorinel Munteanu, 0.0,62.08789
101, S.L. Benfica, 0.67,105.859505
102, Plzeň, 0.0,77.2852
102, Barcelona, 0.33,76.13347
102, Minsk, 0.0,-39.71074
102, Lionel Messi, 0.67,88.27574
103, Marius Niculae, 0.335,172.85518
103, Austria, 0.335,68.7235
103, Gabriel Torje, 0.67,189.9862
104, Daniel Pancu, -0.67,3.4199367
104, Mediafax, 0.0,-1.4975322
105, Tobă, 0.0,29.563557
105, Poliția Română, 0.5,22.477934
106, Matthew McConaughey, 0.83500004,22.173595
106, Hollywood, 0.0,25.587446
107, CNN, 0.0,-35.997116
108, YouTube, 0.0,21.530571
110, Județul Bihor, 0.0,29.35343
111, Munții Apuseni, 0.0,38.45482
112, Traian Băsescu, 0.0,27.95237
112, Consiliul Superior al Magistraturii, 0.0,NaN
113, Ziarul, 0.0,35.842808
114, America, 0.0,NaN
115, Oravița, 0.0,-7.1807766
115, Mediafax, 0.0,-10.816225
116, Oravița, 0.0,2.7421715
117, Oravița, 0.0,-15.59873
118, Dallas, 0.0,52.098343
119, Victor Ponta, 0.0,-7.756883
120, Sorin Ovidiu Vântu, -0.33,43.10975
121, Sorin Ovidiu Vântu, 0.33,124.42184
122, Kayseri, 0.0,33.648293
122, Istanbul, 0.0,38.07427
123, Consiliul Național al Audiovizualului, 0.165,25.81453
123, Roșia Montană Gold Corporation, -0.67,16.399282
123, Răsvan Popescu, 0.0,35.221626
124, Roșia Montană, Alba, -0.165,19.118967
124, Consiliul Național al Audiovizualului, 0.0,16.661947
124, Eugenia Vodă, 0.335,35.302856
125, Roșia Montană, Alba, -0.165,25.99334
125, Georgescu, 0.0,18.550947
126, George Becali, -0.33,-3.1432683
127, Înalta Curte de Casație și Justiție, 0.0,21.441282
127, Curtea de Apel București, 0.0,-1.1735777
128, Curtea de Apel București, 0.0,-11.5545845
129, Mediafax, 0.0,-3.0834975
130, Lege, 0.0,33.575375
131, Gândul, 0.0,NaN
131, București, 0.0,65.81851
132, București, 0.0,26.753384
132, Remus Pricopie, 0.0,52.66042
133, Crăciun, 0.335,171.26523
134, Sistemul Electronic de Achiziții Publice, 0.165,18.70908
135, Germania, 0.0,13.216178
135, Europa, 0.0,8.456173
135, Danemarca, 0.0,17.352875
135, România, 0.165,52.080982
136, Munții Apuseni, 0.0,31.758001
136, Alba, 0.0,NaN
137, Curtea Europeană a Drepturilor Omului, 0.33,NaN
137, Drepturile omului, 0.0,90.18123
137, Convenția Europeană a Drepturilor Omului, 0.165,84.944214
138, Celsius, 0.0,36.787277
139, Administrația Națională de Meteorologie, 0.0,40.14112
139, Banat, 0.0,17.800453
139, Celsius, 0.0,75.54243
139, Transilvania, 0.0,4.421845
139, Maramureș, 0.0,90.53406
140, Predeal, 0.0,23.38112
140, DN1, 0.0,NaN
141, Administrația Națională de Meteorologie, 0.0,62.803192
141, DN1, 0.0,NaN
142, Banat, 0.0,29.515228
142, Dobrogea, 0.0,23.866892
143, Celsius, 0.0,12.799114
144, Germania, 0.0,64.73841
144, Europa de Est, 0.0,71.087296
145, Piața Victoriei, 0.0,-24.696651
145, Victor Ponta, -0.5,NaN
146, Piața Victoriei, 0.0,16.659649
146, Victor Ponta, -0.5,NaN
147, Piața Universității, 0.0,-22.786654
147, Roșia Montană, Alba, -0.165,-63.56791
147, Victor Ponta, -0.5,NaN
147, Alina Mungiu-Pippidi, 0.335,-19.269926
148, Radu Beligan, 0.67,21.599136
148, Mediafax, 0.0,24.433973
149, România, -0.33,-33.212727
150, Norvegia, 0.67,116.87452
150, Ungaria, 0.33,115.35518
151, Ungaria, 0.33,140.2403
153, Suedia, 0.0,32.065094
154, InterAgro, -0.67,33.19497
154, Adriean Videanu, -0.165,34.588913
154, Varujan Vosganian, 0.0,32.190937
154, Romgaz, -0.335,22.532944
155, Ioan Niculae, 0.0,-9.104955
155, Varujan Vosganian, 0.0,NaN
155, Realitatea TV, 0.0,-13.98901
156, Ministerul Mediului și schimbărilor climatice, 0.0,25.310623
156, Parlamentul European, 0.0,19.679394
156, Adrian Severin, -0.5,25.448984
156, Victor Ponta, -0.165,28.015993
157, Parlamentul European, 0.0,29.084053
157, Adrian Severin, -0.5,26.242231
158, Parlamentul European, 0.0,69.344666
158, Adrian Severin, -0.67,67.974556
159, Parlamentul European, 0.0,12.933333
159, Adrian Severin, -0.5,13.09396
160, Ioan Oltean, 0.0,2.29
161, Înalta Curte de Casație și Justiție, -0.165,57.342854
162, Marius Locic, -0.67,-15.342484
162, Înalta Curte de Casație și Justiție, 0.0,-31.531006
162, Florin Costiniu, -0.67,-7.2172475
163, Înalta Curte de Casație și Justiție, 0.33,NaN
163, Marius Locic, -0.67,13.632863
163, Florin Costiniu, -0.67,-11.24146
164, Marius Locic, -0.67,19.250628
164, Florin Costiniu, -0.67,8.676371
165, Craiova, 0.0,-3.0502832
165, Antonie Solomon, -0.67,54.10712
165, Cornel Penescu, -0.5,41.20727
166, Sèvres, 0.0,100.787254
166, Cornel Penescu, 0.33,NaN
167, Vaslui, 0.0,28.488602
168, Galați, 0.0,25.696753
168, Mahomed, 0.165,80.242935
168, Internet, 0.0,40.396667
169, Drepturile omului, 0.0,90.18123
169, Convenția Europeană a Drepturilor Omului, 0.165,84.944214
170, București, 0.0,73.67304
171, Banat, 0.0,26.745935
171, Cluj-Napoca, 0.0,11.149112
171, Maramureș, 0.0,-10.727227
171, Transilvania, 0.0,7.85705
171, Sibiu, 0.0,-0.05998314
171, Satu Mare, 0.0,46.887352
171, Oradea, 0.0,35.39368
172, Banat, 0.0,46.086887
172, Timișoara, 0.0,55.26882
172, București, 0.0,22.638527
173, Capitală, 0.0,41.26984
174, Ministerul Afacerilor Interne, 0.0,18.81715
174, Ucraina, 0.0,29.47938
175, Europa de Est, 0.0,23.653915
175, Rusia, 0.5,52.708374
175, Mediafax, 0.0,118.23604
175, Cipru, 0.67,50.97642
175, Turcia, 0.5,51.27587
175, Bulgaria, 0.5,51.684708
175, Bloomberg, 0.0,35.449677
175, Asia Centrală, 0.0,41.636623
175, Ungaria, 0.5,50.883484
175, România, 0.33,18.590532
176, Bloomberg, 0.0,63.745544
176, România, -0.165,57.70453
177, Slovenia, -0.165,NaN
177, Slovacia, -0.165,30.474298
177, Bloomberg, 0.0,29.588657
177, România, 0.33,29.507164
178, Munții Apuseni, 0.0,39.015926
179, DVD, 0.0,151.1696
180, Bragadiru, 0.0,-11.976589
181, Consiliul Superior al Magistraturii, 0.0,NaN
182, Silvio Berlusconi, -0.67,24.941523
182, Parlament, 0.0,5.433978
183, Buzău, 0.0,49.28155
184, Ministerul Apărării Naționale, -0.165,NaN
184, Mediafax, 0.0,19.27003
185, Munții Apuseni, 0.0,NaN
185, Ministerul Apărării Naționale, 0.0,NaN
185, Mediafax, 0.0,56.770607
186, Soarelui, 0.0,25.423704
186, Pământ, 0.0,18.39983
187, Anul Nou, 0.33,24.707735
187, Soarelui, 0.0,22.194473
188, Sorin Ovidiu Vântu, -0.33,43.10975
189, Indonezia, 0.0,101.65946
189, Sorin Ovidiu Vântu, 0.0,124.42184
190, Sorin Ovidiu Vântu, -0.335,-19.300331
190, Tribunalul București, 0.165,-33.818176
190, Curtea de Apel București, -0.165,-10.650735
191, Carpatica Asigurări, 0.0,NaN
191, România, 0.0,8.128947
192, Ip, Sălaj, -0.335,6.094496
193, Societatea Română de Televiziune, 0.0,10.306242
194, Oscar Wilde, 0.5,71.0706
195, Statele Unite ale Americii, 0.33,-47.02
196, Traian Băsescu, 0.0,45.285774
196, Statele Unite ale Americii, 0.33,NaN
196, România, 0.33,71.61659
197, Traian Băsescu, 0.0,39.745262
197, România, 0.33,71.61659
198, Traian Băsescu, 0.0,-17.85052
199, Dubai, 0.335,-10.686153
200, Moș Crăciun, 0.335,NaN
200, Ferrari, 0.335,-10.182817
201, Moș Crăciun, 0.335,NaN
201, Ferrari, 0.335,44.045475
202, Moș Crăciun, 0.5,133.92514
203, Bulgaria, 0.33,47.511093
203, Sofia, 0.165,104.0674
204, Uniunea Social-Liberală, 0.0,-58.814297
204, Finanțe, 0.0,48.541714
205, Cazul Elodia Marilena Ghinescu, 0.0,-56.777084
205, Penitenciarul Colibași, 0.0,-54.362442
207, Univers, 0.0,40.030067
208, Pământ, -0.165,178.12836
209, Liviu Dragnea, 0.335,22.876957
209, Poliție, 0.0,25.390867
209, Poliția Română, 0.0,NaN
210, Liviu Dragnea, 0.335,70.91082
210, Palatul Victoria, 0.0,46.020714
210, Poliția Română, 0.0,NaN
211, Romsilva, -0.165,45.24487
211, Rovana Plumb, 0.335,54.320126
212, Județul Ialomița, 0.0,80.61873
212, Călărași, 0.0,64.47934
213, Comarnic, 0.0,6.9162645
214, Valea Screzii, Prahova, 0.0,-16.63734
214, Buzău, 0.0,-0.5938924
214, Ministerul Apărării Naționale, 0.0,NaN
215, Florin Bratu, 0.0,-5.3606668
215, Cristian Dulca, 0.0,NaN
215, George Copos, -0.33,5.0470986
216, Înalta Curte de Casație și Justiție, 0.0,21.441282
216, Curtea de Apel București, 0.165,-1.1735777
217, Curtea de Apel București, 0.0,-11.5545845
218, Kiev, 0.0,-56.558163
219, Cernăuți, 0.0,-26.63469
220, Iași, 0.0,160.74854
220, Crin Antonescu, 0.0,174.11966
220, Relu Fenechiu, 0.0,132.32816
220, Mediafax, 0.0,114.81651
220, București, 0.0,196.54326
221, Consiliul Superior al Magistraturii, 0.0,NaN
222, România TV, 0.0,4.1461034
222, Năstase, Botoșani, -0.33,8.148949
222, Traian Băsescu, -0.67,5.915216
222, Adrian Năstase, 0.0,NaN
223, Traian Băsescu, -0.335,109.38311
223, Iulia Timoșenko, 0.335,113.70062
223, Victor Ponta, 0.0,NaN
223, Adrian Năstase, 0.5,108.50973
224, Munții Apuseni, 0.0,40.657013
224, Dobrogea, 0.0,60.96907
225, Victor Ponta, 0.165,88.54014
225, Remus Pricopie, 0.0,NaN
226, Curtea Penală Internațională, 0.0,108.14985
226, Victor Ponta, -0.33,90.79709
227, Poșta Română, -0.335,-4.5765324
227, Tudor Chiuariu, -0.67,-2.0010414
228, Calea Victoriei, 0.0,62.355797
229, Curțile de apel din România, 0.0,20.392948
229, Tribunalul București, 0.165,53.162537
230, Traian Băsescu, 0.0,24.063488
230, Ministerul Culturii, 0.0,NaN
230, Victor Ponta, 0.0,23.691158
230, Johannesburg, 0.0,4.817976
230, Daniel Barbu, -0.5,9.981951
231, Borg, 0.0,71.652145
232, Dumnezeu, 0.83500004,63.70407
232, Munții Apuseni, 0.0,40.70201
233, Mobile TeleSystems, 0.0,84.60765
234, Brașov, 0.0,43.479267
235, Brașov, 0.0,94.78822
236, Județul Bihor, 0.0,63.9453
237, Județul Bihor, 0.0,29.35343
238, Munții Apuseni, 0.0,38.45482
239, Parlament, 0.0,65.86894
239, The Economist, -0.335,NaN
239, Victor Ponta, -0.67,NaN
239, Roșia Montană Gold Corporation, -0.67,92.43192
239, România, -0.5,13.516018
240, Belarus, -0.67,61.78397
240, Spania, -0.67,74.04097
240, Brazilia, -0.5,53.926838
240, Maroc, -0.67,50.17536
240, Turcia, -0.5,80.24192
240, Ucraina, -0.67,92.23709
240, Bulgaria, -0.5,114.37769
240, The Economist, 0.0,43.95795
240, Algeria, -0.67,70.079315
240, Mexic, -0.67,44.531536
240, România, -0.5,91.21917
241, Traian Băsescu, -0.33,13.107933
241, Emil Boc, -0.335,12.331036
241, Partidul Democrat Liberal, -0.33,NaN
242, Chevron, -0.335,18.157003
243, Republica Moldova, 0.0,NaN
243, România, 0.0,105.11352
244, Alba, 0.0,99.373344
245, Radu, 0.0,31.242498
246, Județ, 0.0,12.099523
246, Cluj-Napoca, 0.0,11.014955
246, Radu, -0.165,-32.023064
246, Institutul Clinic Fundeni, 0.0,-8.192437
246, Beliș, Cluj, 0.0,13.165999
247, Drobeta-Turnu Severin, 0.0,-33.005413
248, Drobeta-Turnu Severin, 0.0,3.01501
249, Poliție, 0.0,-23.287308
250, Rusu, -0.5,16.59237
251, Rusu, -0.5,-46.33187
252, facebook, 0.0,134.49263
253, Germania, 0.335,63.154713
253, Spania, 0.335,NaN
253, Austria, 0.335,62