MoleculeId,PredictedProbability
1,0.880000
2,0.860000
3,0.570000
4,0.930000
5,0.170000
6,0.600000
7,0.970000
8,0.720000
9,0.900000
10,0.550000
11,0.350000
12,0.740000
13,0.760000
14,0.510000
15,0.330000
16,0.130000
17,0.270000
18,0.220000
19,0.410000
20,0.820000
21,0.210000
22,0.910000
23,0.870000
24,0.930000
25,0.930000
26,0.560000
27,0.090000
28,0.240000
29,0.280000
30,0.480000
31,0.400000
32,0.130000
33,0.670000
34,0.370000
35,0.500000
36,0.930000
37,0.710000
38,0.660000
39,0.870000
40,0.940000
41,0.410000
42,0.100000
43,0.580000
44,0.890000
45,0.050000
46,0.420000
47,0.840000
48,0.540000
49,0.910000
50,0.600000
51,0.800000
52,0.130000
53,0.720000
54,0.210000
55,0.200000
56,0.850000
57,0.970000
58,0.930000
59,0.930000
60,0.760000
61,0.790000
62,0.850000
63,0.370000
64,0.090000
65,0.560000
66,0.490000
67,0.390000
68,0.220000
69,0.240000
70,0.450000
71,0.860000
72,0.780000
73,0.860000
74,0.820000
75,0.300000
76,0.390000
77,0.930000
78,0.570000
79,0.930000
80,0.340000
81,0.280000
82,0.230000
83,0.080000
84,0.180000
85,0.740000
86,0.500000
87,0.360000
88,0.910000
89,0.860000
90,0.270000
91,0.500000
92,0.560000
93,0.290000
94,0.160000
95,0.670000
96,0.320000
97,0.570000
98,0.810000
99,0.890000
100,0.870000
101,0.640000
102,0.960000
103,0.560000
104,0.370000
105,0.210000
106,0.210000
107,0.640000
108,0.540000
109,0.940000
110,0.030000
111,0.520000
112,0.560000
113,0.140000
114,0.800000
115,0.810000
116,0.130000
117,0.770000
118,0.290000
119,0.520000
120,0.250000
121,0.430000
122,0.140000
123,0.920000
124,0.360000
125,0.370000
126,0.340000
127,0.540000
128,0.390000
129,0.330000
130,0.150000
131,0.070000
132,0.500000
133,0.040000
134,0.890000
135,0.560000
136,0.860000
137,0.120000
138,0.670000
139,0.700000
140,0.920000
141,0.690000
142,0.960000
143,0.810000
144,0.400000
145,0.840000
146,0.100000
147,0.830000
148,0.870000
149,0.540000
150,0.340000
151,0.080000
152,0.600000
153,0.420000
154,0.970000
155,0.980000
156,0.530000
157,0.800000
158,0.910000
159,0.650000
160,0.030000
161,0.630000
162,0.030000
163,0.160000
164,0.990000
165,0.980000
166,0.500000
167,0.540000
168,0.760000
169,0.490000
170,0.830000
171,0.910000
172,0.820000
173,0.420000
174,0.740000
175,0.100000
176,0.780000
177,0.270000
178,0.260000
179,0.550000
180,0.150000
181,0.380000
182,0.780000
183,0.650000
184,0.190000
185,0.900000
186,0.570000
187,0.920000
188,0.430000
189,0.970000
190,0.470000
191,0.170000
192,0.520000
193,0.120000
194,0.610000
195,0.960000
196,0.450000
197,0.980000
198,0.650000
199,0.720000
200,0.220000
201,0.950000
202,0.220000
203,0.320000
204,0.200000
205,0.840000
206,0.780000
207,0.550000
208,0.870000
209,0.550000
210,0.310000
211,0.860000
212,0.870000
213,0.900000
214,0.040000
215,0.600000
216,0.770000
217,0.640000
218,0.560000
219,0.360000
220,0.250000
221,0.730000
222,0.410000
223,0.330000
224,0.980000
225,0.360000
226,0.360000
227,0.290000
228,0.900000
229,0.210000
230,0.480000
231,0.600000
232,0.930000
233,0.920000
234,0.390000
235,0.830000
236,0.800000
237,0.670000
238,0.240000
239,0.840000
240,0.730000
241,0.250000
242,0.020000
243,0.660000
244,0.470000
245,0.650000
246,0.900000
247,0.190000
248,0.260000
249,0.950000
250,0.130000
251,0.620000
252,0.460000
253,0.580000
254,0.520000
255,0.970000
256,0.520000
257,0.190000
258,0.390000
259,0.560000
260,0.070000
261,0.370000
262,0.270000
263,0.220000
264,0.610000
265,0.140000
266,0.750000
267,0.830000
268,0.230000
269,0.520000
270,0.900000
271,0.960000
272,0.910000
273,0.700000
274,0.280000
275,0.320000
276,0.150000
277,0.890000
278,0.490000
279,0.690000
280,0.530000
281,0.110000
282,0.810000
283,0.770000
284,0.000000
285,0.780000
286,0.990000
287,0.890000
288,0.480000
289,0.830000
290,0.230000
291,0.220000
292,0.320000
293,0.510000
294,0.810000
295,0.050000
296,0.360000
297,0.030000
298,0.690000
299,0.740000
300,0.800000
301,0.840000
302,0.290000
303,0.660000
304,0.830000
305,0.900000
306,0.910000
307,0.410000
308,0.900000
309,0.560000
310,0.910000
311,0.970000
312,0.590000
313,0.550000
314,0.050000
315,0.810000
316,0.560000
317,0.900000
318,0.370000
319,0.280000
320,0.100000
321,0.370000
322,0.760000
323,0.830000
324,0.230000
325,0.170000
326,0.850000
327,1.000000
328,0.930000
329,0.420000
330,0.710000
331,0.640000
332,0.760000
333,0.470000
334,0.460000
335,0.670000
336,0.680000
337,0.810000
338,0.110000
339,0.030000
340,0.940000
341,0.960000
342,0.760000
343,0.130000
344,0.320000
345,0.650000
346,0.760000
347,0.220000
348,0.380000
349,0.150000
350,0.620000
351,0.310000
352,0.780000
353,0.740000
354,0.260000
355,0.650000
356,0.390000
357,0.630000
358,0.280000
359,0.170000
360,0.830000
361,0.390000
362,0.680000
363,0.940000
364,0.600000
365,0.850000
366,0.970000
367,0.630000
368,0.470000
369,0.070000
370,0.270000
371,0.830000
372,0.320000
373,0.570000
374,0.060000
375,0.570000
376,0.960000
377,0.560000
378,0.590000
379,0.880000
380,0.210000
381,0.880000
382,0.930000
383,0.990000
384,0.290000
385,0.960000
386,0.530000
387,0.140000
388,0.100000
389,0.030000
390,0.910000
391,0.720000
392,0.550000
393,0.740000
394,0.620000
395,0.980000
396,0.220000
397,0.450000
398,0.110000
399,0.730000
400,0.930000
401,0.890000
402,0.580000
403,0.040000
404,0.970000
405,0.510000
406,0.210000
407,0.990000
408,0.530000
409,0.390000
410,0.380000
411,0.580000
412,0.940000
413,0.900000
414,0.400000
415,0.780000
416,0.830000
417,0.390000
418,0.580000
419,0.440000
420,0.380000
421,0.220000
422,0.650000
423,0.640000
424,0.470000
425,0.920000
426,0.120000
427,0.870000
428,0.720000
429,0.650000
430,0.380000
431,0.620000
432,0.610000
433,0.450000
434,0.260000
435,0.420000
436,0.080000
437,0.490000
438,0.570000
439,0.040000
440,0.220000
441,0.680000
442,0.880000
443,0.890000
444,0.140000
445,0.880000
446,0.890000
447,0.440000
448,0.050000
449,0.080000
450,0.880000
451,0.470000
452,0.800000
453,0.350000
454,0.820000
455,0.580000
456,0.740000
457,0.400000
458,0.720000
459,0.130000
460,0.550000
461,0.440000
462,0.860000
463,0.660000
464,0.870000
465,0.700000
466,0.430000
467,0.290000
468,0.680000
469,0.540000
470,0.330000
471,0.120000
472,0.990000
473,0.230000
474,0.340000
475,0.420000
476,0.350000
477,0.640000
478,0.400000
479,0.360000
480,0.190000
481,0.160000
482,0.290000
483,0.520000
484,0.880000
485,0.330000
486,0.870000
487,0.380000
488,0.520000
489,0.630000
490,0.560000
491,0.070000
492,0.810000
493,0.740000
494,0.960000
495,0.330000
496,0.900000
497,0.380000
498,0.330000
499,0.370000
500,0.300000
501,0.860000
502,0.640000
503,0.470000
504,0.110000
505,0.810000
506,0.650000
507,0.410000
508,0.400000
509,0.390000
510,0.290000
511,0.970000
512,0.760000
513,0.290000
514,0.890000
515,0.900000
516,0.220000
517,0.480000
518,0.040000
519,0.390000
520,0.890000
521,0.720000
522,0.840000
523,0.850000
524,0.600000
525,0.550000
526,0.270000
527,0.820000
528,0.720000
529,0.180000
530,0.310000
531,0.640000
532,0.150000
533,0.700000
534,0.140000
535,0.430000
536,0.080000
537,0.970000
538,0.160000
539,0.980000
540,0.360000
541,0.300000
542,0.120000
543,0.500000
544,0.440000
545,0.840000
546,0.830000
547,0.850000
548,0.470000
549,0.890000
550,0.840000
551,0.490000
552,0.280000
553,0.230000
554,0.320000
555,0.050000
556,0.880000
557,0.380000
558,0.540000
559,0.580000
560,0.880000
561,1.000000
562,0.920000
563,0.540000
564,0.390000
565,0.580000
566,0.440000
567,0.350000
568,0.810000
569,0.830000
570,0.300000
571,0.610000
572,0.890000
573,0.080000
574,0.700000
575,0.300000
576,0.760000
577,0.840000
578,0.590000
579,0.770000
580,0.150000
581,0.590000
582,0.950000
583,0.170000
584,0.870000
585,0.630000
586,0.700000
587,0.940000
588,0.320000
589,0.240000
590,0.910000
591,0.700000
592,0.040000
593,0.960000
594,0.920000
595,0.790000
596,0.210000
597,0.220000
598,0.960000
599,0.970000
600,0.350000
601,0.350000
602,0.500000
603,0.860000
604,0.460000
605,0.720000
606,0.300000
607,0.920000
608,0.240000
609,0.140000
610,0.390000
611,0.510000
612,0.980000
613,0.340000
614,0.720000
615,0.960000
616,0.580000
617,0.550000
618,0.920000
619,0.010000
620,0.600000
621,0.510000
622,0.830000
623,0.360000
624,0.230000
625,0.250000
626,0.930000
627,0.220000
628,0.620000
629,0.280000
630,0.130000
631,0.230000
632,0.340000
633,0.920000
634,0.630000
635,0.860000
636,0.850000
637,0.970000
638,0.160000
639,0.600000
640,0.550000
641,0.390000
642,0.250000
643,0.160000
644,0.100000
645,0.210000
646,0.470000
647,0.080000
648,0.790000
649,0.640000
650,0.690000
651,0.880000
652,0.190000
653,0.290000
654,0.160000
655,0.270000
656,0.930000
657,0.600000
658,0.660000
659,0.730000
660,0.290000
661,0.240000
662,0.700000
663,0.330000
664,0.820000
665,0.850000
666,0.090000
667,0.520000
668,0.850000
669,0.380000
670,0.530000
671,0.330000
672,0.880000
673,0.260000
674,0.590000
675,0.900000
676,0.370000
677,0.350000
678,0.340000
679,0.590000
680,0.030000
681,0.300000
682,0.370000
683,0.220000
684,0.640000
685,0.690000
686,0.170000
687,0.110000
688,0.710000
689,0.160000
690,0.680000
691,0.690000
692,0.760000
693,0.610000
694,0.770000
695,0.230000
696,0.820000
697,0.840000
698,0.420000
699,0.930000
700,0.830000
701,0.420000
702,0.310000
703,0.810000
704,0.560000
705,0.740000
706,0.390000
707,0.630000
708,0.430000
709,0.920000
710,0.780000
711,0.070000
712,0.820000
713,0.540000
714,0.530000
715,0.740000
716,0.660000
717,0.440000
718,0.930000
719,0.800000
720,0.690000
721,0.950000
722,0.740000
723,0.890000
724,0.470000
725,0.480000
726,0.020000
727,0.350000
728,0.210000
729,0.080000
730,0.620000
731,0.810000
732,0.580000
733,0.870000
734,0.310000
735,0.180000
736,0.330000
737,0.060000
738,0.420000
739,0.950000
740,0.840000
741,0.670000
742,0.460000
743,0.230000
744,0.910000
745,0.590000
746,0.140000
747,0.400000
748,0.680000
749,0.810000
750,0.550000
751,0.260000
752,0.600000
753,0.730000
754,0.700000
755,0.680000
756,0.580000
757,0.770000
758,0.600000
759,1.000000
760,0.790000
761,0.600000
762,0.570000
763,0.910000
764,0.870000
765,0.710000
766,0.360000
767,0.400000
768,0.800000
769,0.640000
770,0.800000
771,0.050000
772,0.360000
773,0.270000
774,0.290000
775,0.880000
776,1.000000
777,0.410000
778,0.590000
779,0.290000
780,0.880000
781,0.860000
782,0.710000
783,0.120000
784,0.780000
785,0.100000
786,0.940000
787,0.760000
788,0.460000
789,0.250000
790,0.110000
791,0.300000
792,0.030000
793,0.270000
794,0.210000
795,0.670000
796,0.740000
797,0.820000
798,0.420000
799,0.610000
800,0.990000
801,0.320000
802,0.630000
803,0.760000
804,0.870000
805,0.780000
806,0.440000
807,0.410000
808,0.190000
809,0.310000
810,0.320000
811,0.710000
812,0.640000
813,0.620000
814,0.960000
815,0.200000
816,0.730000
817,0.170000
818,0.790000
819,0.680000
820,0.860000
821,0.020000
822,0.670000
823,0.010000
824,0.310000
825,0.640000
826,0.910000
827,0.550000
828,0.860000
829,0.760000
830,0.940000
831,0.670000
832,0.920000
833,0.320000
834,0.900000
835,0.290000
836,0.780000
837,0.730000
838,0.260000
839,0.620000
840,0.640000
841,0.750000
842,0.120000
843,0.150000
844,0.370000
845,0.920000
846,0.660000
847,0.860000
848,0.560000
849,0.310000
850,0.320000
851,0.850000
852,0.980000
853,0.980000
854,0.200000
855,0.830000
856,0.470000
857,0.510000
858,0.890000
859,0.210000
860,0.160000
861,0.730000
862,0.740000
863,0.740000
864,0.750000
865,0.390000
866,0.210000
867,0.800000
868,0.650000
869,0.870000
870,0.650000
871,0.420000
872,0.540000
873,0.850000
874,0.400000
875,0.710000
876,0.560000
877,0.400000
878,0.940000
879,0.860000
880,0.370000
881,0.570000
882,0.560000
883,0.930000
884,0.100000
885,0.140000
886,0.210000
887,0.460000
888,0.860000
889,0.130000
890,0.210000
891,0.290000
892,0.370000
893,0.950000
894,0.480000
895,0.860000
896,0.620000
897,0.720000
898,0.600000
899,0.140000
900,0.860000
901,0.000000
902,0.680000
903,0.260000
904,0.940000
905,0.970000
906,0.490000
907,0.360000
908,0.640000
909,0.980000
910,0.230000
911,0.360000
912,0.680000
913,0.890000
914,0.320000
915,0.840000
916,0.460000
917,0.280000
918,0.450000
919,0.540000
920,0.040000
921,0.280000
922,0.800000
923,0.160000
924,0.480000
925,0.980000
926,0.670000
927,0.270000
928,0.040000
929,0.010000
930,0.780000
931,0.130000
932,0.270000
933,0.150000
934,0.860000
935,0.640000
936,0.220000
937,0.970000
938,0.610000
939,1.000000
940,0.240000
941,0.780000
942,0.260000
943,0.030000
944,0.320000
945,0.450000
946,0.530000
947,0.390000
948,0.710000
949,0.230000
950,0.590000
951,0.830000
952,0.250000
953,0.260000
954,0.100000
955,0.160000
956,0.210000
957,0.800000
958,0.400000
959,0.430000
960,0.280000
961,0.510000
962,0.790000
963,0.570000
964,0.620000
965,0.060000
966,0.790000
967,0.310000
968,0.720000
969,0.370000
970,0.150000
971,0.340000
972,0.390000
973,0.970000
974,0.850000
975,0.780000
976,0.710000
977,0.910000
978,0.260000
979,0.830000
980,0.310000
981,0.290000
982,0.160000
983,0.690000
984,0.930000
985,0.390000
986,0.100000
987,0.640000
988,0.720000
989,0.210000
990,0.520000
991,0.770000
992,0.240000
993,0.790000
994,0.130000
995,0.330000
996,0.820000
997,0.410000
998,0.250000
999,0.530000
1000,0.530000
1001,0.090000
1002,0.910000
1003,0.960000
1004,0.440000
1005,0.770000
1006,0.070000
1007,0.620000
1008,0.920000
1009,0.640000
1010,0.280000
1011,0.590000
1012,0.280000
1013,0.320000
1014,0.320000
1015,0.210000
1016,0.780000
1017,0.370000
1018,0.880000
1019,0.770000
1020,0.380000
1021,0.530000
1022,0.460000
1023,0.750000
1024,0.680000
1025,0.670000
1026,0.470000
1027,0.400000
1028,0.320000
1029,0.910000
1030,0.960000
1031,0.650000
1032,0.370000
1033,0.770000
1034,0.200000
1035,0.740000
1036,0.380000
1037,0.610000
1038,0.670000
1039,0.340000
1040,0.300000
1041,0.290000
1042,0.850000
1043,0.930000
1044,0.400000
1045,0.440000
1046,0.970000
1047,0.950000
1048,0.570000
1049,0.400000
1050,0.940000
1051,0.220000
1052,0.450000
1053,0.940000
1054,0.820000
1055,0.770000
1056,0.900000
1057,0.140000
1058,0.860000
1059,0.140000
1060,0.390000
1061,0.440000
1062,0.340000
1063,0.910000
1064,0.270000
1065,0.540000
1066,0.570000
1067,0.590000
1068,0.720000
1069,0.370000
1070,0.340000
1071,0.360000
1072,0.860000
1073,1.000000
1074,0.900000
1075,0.650000
1076,0.550000
1077,0.950000
1078,0.360000
1079,0.800000
1080,0.910000
1081,0.520000
1082,0.440000
1083,0.470000
1084,0.880000
1085,0.160000
1086,0.420000
1087,0.170000
1088,0.970000
1089,0.890000
1090,0.180000
1091,0.660000
1092,0.980000
1093,0.830000
1094,0.950000
1095,0.950000
1096,0.560000
1097,0.840000
1098,0.290000
1099,0.340000
1100,0.960000
1101,0.060000
1102,0.690000
1103,0.930000
1104,0.480000
1105,0.350000
1106,0.800000
1107,0.370000
1108,0.360000
1109,0.090000
1110,0.750000
1111,0.240000
1112,0.880000
1113,0.780000
1114,0.160000
1115,0.700000
1116,0.050000
1117,0.710000
1118,0.070000
1119,0.230000
1120,0.220000
1121,0.620000
1122,0.310000
1123,0.640000
1124,0.370000
1125,0.110000
1126,0.970000
1127,0.150000
1128,0.620000
1129,0.360000
1130,0.120000
1131,0.240000
1132,0.540000
1133,0.900000
1134,0.850000
1135,0.330000
1136,0.070000
1137,0.670000
1138,0.470000
1139,0.610000
1140,0.470000
1141,0.480000
1142,0.330000
1143,0.340000
1144,0.550000
1145,0.700000
1146,1.000000
1147,0.730000
1148,0.170000
1149,0.780000
1150,0.970000
1151,0.580000
1152,0.470000
1153,0.360000
1154,0.690000
1155,0.850000
1156,0.870000
1157,0.090000
1158,0.240000
1159,0.000000
1160,0.800000
1161,0.480000
1162,0.630000
1163,0.880000
1164,0.280000
1165,0.690000
1166,0.410000
1167,0.890000
1168,0.060000
1169,0.970000
1170,0.150000
1171,0.940000
1172,0.680000
1173,0.170000
1174,0.540000
1175,0.870000
1176,0.100000
1177,0.650000
1178,0.740000
1179,0.370000
1180,0.170000
1181,0.930000
1182,0.850000
1183,0.920000
1184,0.070000
1185,0.670000
1186,0.230000
1187,0.450000
1188,0.160000
1189,0.970000
1190,0.420000
1191,0.250000
1192,0.520000
1193,0.960000
1194,0.300000
1195,0.660000
1196,0.050000
1197,0.890000
1198,0.930000
1199,0.990000
1200,0.450000
1201,0.890000
1202,0.560000
1203,0.970000
1204,0.400000
1205,0.420000
1206,0.880000
1207,0.360000
1208,0.750000
1209,0.160000
1210,0.970000
1211,0.170000
1212,0.720000
1213,0.090000
1214,0.490000
1215,0.690000
1216,0.670000
1217,0.310000
1218,0.650000
1219,0.580000
1220,0.430000
1221,0.700000
1222,0.870000
1223,0.380000
1224,0.530000
1225,0.680000
1226,0.260000
1227,0.970000
1228,0.720000
1229,0.890000
1230,0.490000
1231,0.820000
1232,0.690000
1233,0.910000
1234,0.400000
1235,0.440000
1236,0.570000
1237,0.250000
1238,0.790000
1239,0.750000
1240,0.250000
1241,0.920000
1242,0.200000
1243,0.110000
1244,0.050000
1245,0.780000
1246,0.270000
1247,0.050000
1248,0.070000
1249,0.900000
1250,0.600000
1251,0.170000
1252,0.430000
1253,0.690000
1254,0.510000
1255,0.640000
1256,0.230000
1257,0.650000
1258,0.550000
1259,0.810000
1260,0.840000
1261,0.910000
1262,0.970000
1263,0.610000
1264,0.610000
1265,0.960000
1266,0.910000
1267,0.940000
1268,0.770000
1269,0.070000
1270,0.270000
1271,0.150000
1272,0.980000
1273,0.840000
1274,0.750000
1275,0.720000
1276,0.400000
1277,0.920000
1278,0.870000
1279,0.840000
1280,0.730000
1281,0.950000
1282,0.770000
1283,0.690000
1284,0.220000
1285,0.520000
1286,0.580000
1287,0.430000
1288,0.300000
1289,0.690000
1290,0.910000
1291,0.920000
1292,0.220000
1293,0.070000
1294,0.810000
1295,0.570000
1296,0.270000
1297,0.050000
1298,0.610000
1299,0.920000
1300,0.260000
1301,0.250000
1302,0.100000
1303,0.900000
1304,0.600000
1305,0.260000
1306,0.860000
1307,0.890000
1308,0.620000
1309,0.810000
1310,0.820000
1311,0.630000
1312,0.850000
1313,0.510000
1314,0.790000
1315,0.380000
1316,0.930000
1317,0.520000
1318,0.160000
1319,0.110000
1320,0.260000
1321,0.630000
1322,0.290000
1323,0.190000
1324,0.770000
1325,0.390000
1326,0.950000
1327,0.600000
1328,0.120000
1329,0.250000
1330,0.800000
1331,0.430000
1332,0.470000
1333,0.890000
1334,0.570000
1335,0.710000
1336,0.590000
1337,0.370000
1338,0.330000
1339,0.710000
1340,0.150000
1341,0.860000
1342,0.980000
1343,0.840000
1344,0.810000
1345,0.950000
1346,1.000000
1347,0.280000
1348,0.950000
1349,0.560000
1350,0.900000
1351,0.970000
1352,0.320000
1353,0.700000
1354,0.910000
1355,0.790000
1356,0.370000
1357,0.640000
1358,0.320000
1359,0.310000
1360,0.880000
1361,0.960000
1362,0.440000
1363,0.550000
1364,0.770000
1365,0.890000
1366,0.860000
1367,0.940000
1368,0.760000
1369,0.970000
1370,0.550000
1371,0.830000
1372,0.390000
1373,1.000000
1374,0.040000
1375,0.470000
1376,0.360000
1377,0.960000
1378,0.550000
1379,0.280000
1380,0.330000
1381,0.740000
1382,0.490000
1383,0.750000
1384,0.570000
1385,0.070000
1386,0.480000
1387,0.910000
1388,0.700000
1389,0.100000
1390,0.720000
1391,0.670000
1392,0.540000
1393,0.930000
1394,0.880000
1395,0.780000
1396,0.350000
1397,0.400000
1398,0.090000
1399,0.190000
1400,0.610000
1401,0.660000
1402,0.860000
1403,0.840000
1404,0.140000
1405,0.040000
1406,0.730000
1407,0.090000
1408,0.950000
1409,0.850000
1410,0.580000
1411,0.280000
1412,0.300000
1413,0.640000
1414,0.770000
1415,0.610000
1416,0.280000
1417,0.350000
1418,0.690000
1419,0.440000
1420,0.900000
1421,0.140000
1422,0.770000
1423,0.810000
1424,0.280000
1425,0.570000
1426,0.530000
1427,0.080000
1428,0.160000
1429,0.240000
1430,0.720000
1431,0.540000
1432,0.480000
1433,0.060000
1434,0.370000
1435,0.380000
1436,0.290000
1437,0.270000
1438,0.940000
1439,0.150000
1440,0.870000
1441,0.720000
1442,0.290000
1443,0.420000
1444,0.200000
1445,0.250000
1446,0.220000
1447,0.060000
1448,0.370000
1449,0.760000
1450,0.650000
1451,0.730000
1452,0.640000
1453,0.380000
1454,0.420000
1455,0.520000
1456,0.760000
1457,0.850000
1458,0.470000
1459,0.500000
1460,0.380000
1461,0.280000
1462,0.820000
1463,0.500000
1464,0.770000
1465,0.910000
1466,0.430000
1467,0.880000
1468,0.360000
1469,0.470000
1470,0.960000
1471,0.760000
1472,0.490000
1473,0.760000
1474,0.160000
1475,0.310000
1476,0.340000
1477,0.900000
1478,0.320000
1479,0.350000
1480,0.920000
1481,0.040000
1482,0.250000
1483,0.800000
1484,0.720000
1485,0.370000
1486,0.020000
1487,0.360000
1488,0.260000
1489,0.260000
1490,0.810000
1491,0.760000
1492,0.340000
1493,0.740000
1494,0.400000
1495,0.680000
1496,0.940000
1497,0.230000
1498,0.860000
1499,0.180000
1500,0.840000
1501,0.160000
1502,0.340000
1503,0.520000
1504,0.540000
1505,0.640000
1506,0.060000
1507,0.250000
1508,0.900000
1509,0.830000
1510,0.490000
1511,0.910000
1512,0.630000
1513,0.930000
1514,0.560000
1515,0.070000
1516,0.080000
1517,0.130000
1518,0.700000
1519,0.510000
1520,0.180000
1521,0.220000
1522,0.890000
1523,0.320000
1524,0.020000
1525,0.950000
1526,0.010000
1527,0.440000
1528,0.700000
1529,0.950000
1530,0.600000
1531,0.370000
1532,0.670000
1533,0.630000
1534,0.360000
1535,0.770000
1536,0.510000
1537,0.200000
1538,0.360000
1539,0.780000
1540,0.910000
1541,0.470000
1542,0.840000
1543,0.030000
1544,0.800000
1545,0.800000
1546,0.900000
1547,0.610000
1548,0.840000
1549,0.580000
1550,0.470000
1551,0.890000
1552,0.830000
1553,0.850000
1554,0.870000
1555,0.860000
1556,0.860000
1557,0.550000
1558,0.800000
1559,0.780000
1560,0.970000
1561,0.570000
1562,0.360000
1563,0.090000
1564,0.370000
1565,0.560000
1566,0.470000
1567,0.810000
1568,0.330000
1569,0.920000
1570,0.740000
1571,1.000000
1572,0.500000
1573,0.940000
1574,0.430000
1575,0.100000
1576,0.630000
1577,0.830000
1578,0.880000
1579,0.800000
1580,0.680000
1581,0.810000
1582,0.390000
1583,0.820000
1584,1.000000
1585,0.590000
1586,0.190000
1587,0.900000
1588,0.800000
1589,0.400000
1590,0.090000
1591,0.070000
1592,0.720000
1593,0.930000
1594,0.170000
1595,0.730000
1596,0.680000
1597,0.660000
1598,0.780000
1599,0.570000
1600,0.320000
1601,0.720000
1602,0.360000
1603,0.090000
1604,0.700000
1605,0.080000
1606,0.230000
1607,0.810000
1608,0.140000
1609,0.730000
1610,0.850000
1611,0.820000
1612,0.770000
1613,0.920000
1614,0.270000
1615,0.550000
1616,0.340000
1617,0.250000
1618,0.550000
1619,0.990000
1620,0.970000
1621,0.270000
1622,0.650000
1623,0.670000
1624,0.880000
1625,0.800000
1626,0.210000
1627,0.020000
1628,0.210000
1629,0.430000
1630,0.160000
1631,0.630000
1632,0.580000
1633,0.900000
1634,0.470000
1635,0.360000
1636,0.280000
1637,0.830000
1638,0.690000
1639,0.230000
1640,0.680000
1641,0.410000
1642,0.900000
1643,0.630000
1644,0.220000
1645,1.000000
1646,0.220000
1647,0.850000
1648,0.800000
1649,0.530000
1650,0.480000
1651,0.870000
1652,0.930000
1653,0.520000
1654,0.440000
1655,0.270000
1656,0.640000
1657,0.670000
1658,0.940000
1659,0.340000
1660,0.880000
1661,0.200000
1662,0.340000
1663,0.270000
1664,0.740000
1665,0.420000
1666,0.520000
1667,0.720000
1668,0.510000
1669,0.970000
1670,0.760000
1671,0.390000
1672,0.980000
1673,0.310000
1674,0.270000
1675,0.890000
1676,0.770000
1677,0.100000
1678,0.830000
1679,0.430000
1680,0.770000
1681,0.760000
1682,0.300000
1683,0.830000
1684,0.650000
1685,0.880000
1686,0.350000
1687,0.790000
1688,0.470000
1689,0.420000
1690,0.750000
1691,0.510000
1692,0.160000
1693,0.370000
1694,0.480000
1695,0.570000
1696,0.220000
1697,0.940000
1698,0.150000
1699,0.080000
1700,0.290000
1701,0.770000
1702,0.870000
1703,0.280000
1704,0.710000
1705,0.250000
1706,0.400000
1707,0.690000
1708,0.040000
1709,0.710000
1710,0.310000
1711,0.400000
1712,0.480000
1713,0.080000
1714,0.160000
1715,0.380000
1716,0.030000
1717,0.380000
1718,0.980000
1719,0.960000
1720,0.470000
1721,0.140000
1722,0.190000
1723,0.400000
1724,0.440000
1725,0.410000
1726,0.770000
1727,0.900000
1728,0.490000
1729,0.930000
1730,0.480000
1731,0.450000
1732,0.320000
1733,0.860000
1734,0.720000
1735,0.650000
1736,0.990000
1737,0.140000
1738,0.900000
1739,0.870000
1740,0.990000
1741,0.770000
1742,0.540000
1743,0.800000
1744,0.530000
1745,0.130000
1746,0.380000
1747,0.130000
1748,0.840000
1749,0.810000
1750,0.360000
1751,0.770000
1752,0.730000
1753,0.270000
1754,0.350000
1755,0.170000
1756,0.980000
1757,0.520000
1758,0.130000
1759,0.490000
1760,0.840000
1761,0.800000
1762,0.970000
1763,0.340000
1764,0.510000
1765,0.840000
1766,0.950000
1767,0.720000
1768,0.690000
1769,0.980000
1770,0.690000
1771,0.730000
1772,0.970000
1773,0.820000
1774,0.570000
1775,0.420000
1776,0.850000
1777,0.050000
1778,0.710000
1779,0.130000
1780,0.520000
1781,0.810000
1782,0.720000
1783,0.220000
1784,0.610000
1785,0.340000
1786,0.010000
1787,0.690000
1788,0.510000
1789,0.260000
1790,0.400000
1791,0.330000
1792,0.630000
1793,0.920000
1794,0.220000
1795,0.150000
1796,0.640000
1797,0.520000
1798,0.580000
1799,0.680000
1800,0.270000
1801,0.960000
1802,0.210000
1803,0.150000
1804,0.430000
1805,0.800000
1806,0.620000
1807,0.530000
1808,0.150000
1809,0.760000
1810,0.810000
1811,0.910000
1812,0.340000
1813,0.750000
1814,0.510000
1815,0.970000
1816,0.330000
1817,0.890000
1818,0.360000
1819,0.510000
1820,0.330000
1821,0.440000
1822,0.440000
1823,0.880000
1824,0.870000
1825,0.970000
1826,0.760000
1827,0.510000
1828,0.930000
1829,0.790000
1830,0.890000
1831,0.420000
1832,0.230000
1833,0.490000
1834,0.600000
1835,0.690000
1836,0.510000
1837,0.340000
1838,0.190000
1839,0.920000
1840,0.550000
1841,0.110000
1842,0.860000
1843,0.630000
1844,0.330000
1845,0.730000
1846,0.260000
1847,0.770000
1848,0.490000
1849,0.300000
1850,0.540000
1851,0.870000
1852,0.080000
1853,0.790000
1854,0.870000
1855,0.650000
1856,0.860000
1857,0.340000
1858,0.230000
1859,0.300000
1860,0.960000
1861,0.620000
1862,0.290000
1863,0.770000
1864,0.990000
1865,0.500000
1866,0.880000
1867,0.850000
1868,0.860000
1869,0.900000
1870,0.640000
1871,0.830000
1872,0.900000
1873,0.530000
1874,0.230000
1875,0.320000
1876,0.750000
1877,0.020000
1878,0.300000
1879,0.680000
1880,0.820000
1881,0.360000
1882,0.270000
1883,0.540000
1884,0.180000
1885,0.920000
1886,0.250000
1887,0.700000
1888,0.960000
1889,0.930000
1890,0.090000
1891,0.780000
1892,0.220000
1893,0.710000
1894,0.480000
1895,0.460000
1896,0.830000
1897,0.940000
1898,0.570000
1899,0.840000
1900,0.250000
1901,0.820000
1902,0.890000
1903,0.630000
1904,0.020000
1905,0.310000
1906,0.110000
1907,0.610000
1908,0.220000
1909,0.910000
1910,0.250000
1911,0.240000
1912,0.890000
1913,0.080000
1914,0.810000
1915,0.760000
1916,0.400000
1917,0.250000
1918,0.250000
1919,0.650000
1920,0.500000
1921,0.930000
1922,0.560000
1923,0.190000
1924,0.460000
1925,0.880000
1926,0.370000
1927,0.300000
1928,0.720000
1929,0.770000
1930,0.200000
1931,0.280000
1932,0.190000
1933,0.280000
1934,0.950000
1935,0.050000
1936,0.220000
1937,0.300000
1938,0.980000
1939,0.600000
1940,0.550000
1941,0.900000
1942,0.940000
1943,0.640000
1944,0.280000
1945,0.280000
1946,0.340000
1947,0.410000
1948,0.570000
1949,0.260000
1950,0.330000
1951,0.830000
1952,0.170000
1953,0.990000
1954,0.400000
1955,0.780000
1956,0.390000
1957,0.320000
1958,0.150000
1959,0.700000
1960,0.380000
1961,0.110000
1962,0.220000
1963,0.260000
1964,0.600000
1965,0.390000
1966,0.450000
1967,0.780000
1968,0.330000
1969,0.780000
1970,0.350000
1971,0.560000
1972,0.830000
1973,0.900000
1974,0.590000
1975,0.870000
1976,0.830000
1977,0.250000
1978,0.790000
1979,0.050000
1980,0.770000
1981,0.860000
1982,0.240000
1983,0.380000
1984,0.260000
1985,0.220000
1986,1.000000
1987,0.470000
1988,0.570000
1989,0.990000
1990,0.670000
1991,0.380000
1992,0.780000
1993,0.690000
1994,0.200000
1995,0.410000
1996,0.890000
1997,0.920000
1998,0.930000
1999,0.380000
2000,0.490000
2001,0.400000
2002,0.990000
2003,0.420000
2004,0.880000
2005,0.690000
2006,0.320000
2007,0.060000
2008,0.960000
2009,0.140000
2010,0.280000
2011,0.340000
2012,0.680000
2013,0.640000
2014,0.630000
2015,0.910000
2016,0.890000
2017,0.210000
2018,0.380000
2019,0.850000
2020,0.770000
2021,0.270000
2022,0.790000
2023,0.760000
2024,0.460000
2025,0.430000
2026,0.240000
2027,0.170000
2028,0.320000
2029,0.280000
2030,0.790000
2031,0.400000
2032,0.830000
2033,0.390000
2034,0.180000
2035,0.690000
2036,0.830000
2037,0.150000
2038,0.440000
2039,0.600000
2040,0.670000
2041,0.360000
2042,0.490000
2043,0.430000
2044,0.210000
2045,0.380000
2046,0.500000
2047,0.950000
2048,0.920000
2049,0.370000
2050,0.170000
2051,0.310000
2052,0.910000
2053,0.700000
2054,0.470000
2055,0.670000
2056,0.560000
2057,0.860000
2058,0.670000
2059,0.410000
2060,0.290000
2061,0.570000
2062,0.980000
2063,0.540000
2064,0.030000
2065,0.200000
2066,0.480000
2067,0.630000
2068,0.520000
2069,0.620000
2070,0.940000
2071,0.140000
2072,0.200000
2073,0.610000
2074,1.000000
2075,0.100000
2076,0.850000
2077,0.330000
2078,0.840000
2079,0.960000
2080,0.770000
2081,0.980000
2082,0.470000
2083,0.460000
2084,0.950000
2085,0.300000
2086,0.320000
2087,0.240000
2088,0.380000
2089,0.580000
2090,0.320000
2091,0.320000
2092,0.720000
2093,0.330000
2094,0.740000
2095,0.510000
2096,0.530000
2097,0.890000
2098,0.900000
2099,0.850000
2100,0.770000
2101,0.450000
2102,0.180000
2103,0.640000
2104,0.610000
2105,0.710000
2106,0.190000
2107,0.570000
2108,0.950000
2109,0.760000
2110,0.510000
2111,0.580000
2112,0.200000
2113,0.840000
2114,0.420000
2115,0.250000
2116,0.330000
2117,0.780000
2118,0.180000
2119,0.270000
2120,0.890000
2121,0.940000
2122,0.870000
2123,0.510000
2124,0.210000
2125,0.910000
2126,0.160000
2127,0.860000
2128,0.500000
2129,0.980000
2130,0.220000
2131,0.730000
2132,0.290000
2133,0.320000
2134,0.690000
2135,0.520000
2136,0.230000
2137,0.720000
2138,0.910000
2139,0.750000
2140,0.240000
2141,0.280000
2142,0.390000
2143,0.360000
2144,0.140000
2145,0.450000
2146,0.930000
2147,0.870000
2148,0.640000
2149,0.310000
2150,0.500000
2151,0.340000
2152,0.300000
2153,0.250000
2154,0.730000
2155,0.750000
2156,0.070000
2157,0.240000
2158,0.500000
2159,0.740000
2160,0.970000
2161,0.820000
2162,0.910000
2163,0.820000
2164,0.870000
2165,0.630000
2166,0.590000
2167,0.850000
2168,0.170000
2169,0.040000
2170,0.800000
2171,0.600000
2172,0.850000
2173,0.170000
2174,0.050000
2175,0.040000
2176,0.790000
2177,0.330000
2178,0.410000
2179,0.570000
2180,0.840000
2181,0.830000
2182,0.330000
2183,0.540000
2184,0.160000
2185,0.240000
2186,0.140000
2187,0.130000
2188,1.000000
2189,0.190000
2190,0.400000
2191,0.340000
2192,0.480000
2193,0.800000
2194,0.340000
2195,0.250000
2196,0.370000
2197,0.330000
2198,0.320000
2199,0.810000
2200,0.830000
2201,0.800000
2202,0.880000
2203,0.290000
2204,0.660000
2205,0.160000
2206,0.410000
2207,0.680000
2208,0.990000
2209,0.240000
2210,0.230000
2211,0.730000
2212,0.540000
2213,0.800000
2214,0.690000
2215,1.000000
2216,0.490000
2217,0.800000
2218,0.430000
2219,0.890000
2220,0.990000
2221,0.290000
2222,0.730000
2223,0.960000
2224,0.170000
2225,0.120000
2226,0.650000
2227,0.630000
2228,0.490000
2229,0.110000
2230,0.820000
2231,0.620000
2232,0.020000
2233,0.980000
2234,0.150000
2235,0.050000
2236,0.040000
2237,0.140000
2238,0.520000
2239,0.940000
2240,0.370000
2241,0.970000
2242,0.970000
2243,0.570000
2244,0.970000
2245,0.840000
2246,0.380000
2247,0.540000
2248,0.590000
2249,0.710000
2250,0.660000
2251,0.300000
2252,0.070000
2253,0.340000
2254,0.680000
2255,0.640000
2256,0.500000
2257,0.130000
2258,0.630000
2259,0.650000
2260,0.670000
2261,0.940000
2262,0.120000
2263,0.190000
2264,0.510000
2265,0.890000
2266,0.980000
2267,0.490000
2268,0.340000
2269,0.080000
2270,0.450000
2271,0.960000
2272,0.420000
2273,0.470000
2274,0.510000
2275,0.620000
2276,0.870000
2277,0.200000
2278,0.630000
2279,0.400000
2280,0.170000
2281,0.300000
2282,0.340000
2283,0.140000
2284,0.480000
2285,0.420000
2286,0.670000
2287,0.280000
2288,0.930000
2289,0.810000
2290,0.700000
2291,0.930000
2292,0.270000
2293,0.960000
2294,0.890000
2295,0.640000
2296,0.230000
2297,0.370000
2298,0.610000
2299,0.480000
2300,0.990000
2301,0.180000
2302,0.880000
2303,0.770000
2304,0.820000
2305,0.470000
2306,0.620000
2307,0.670000
2308,0.150000
2309,0.870000
2310,0.830000
2311,0.340000
2312,0.700000
2313,0.890000
2314,0.970000
2315,0.370000
2316,0.830000
2317,0.010000
2318,0.360000
2319,0.880000
2320,0.440000
2321,0.840000
2322,0.770000
2323,0.190000
2324,0.990000
2325,0.180000
2326,0.470000
2327,0.860000
2328,0.850000
2329,0.160000
2330,0.480000
2331,0.500000
2332,0.160000
2333,0.840000
2334,0.400000
2335,0.640000
2336,0.990000
2337,0.280000
2338,0.830000
2339,0.240000
2340,0.940000
2341,0.930000
2342,0.930000
2343,0.990000
2344,0.540000
2345,0.790000
2346,0.630000
2347,0.570000
2348,0.370000
2349,0.370000
2350,0.060000
2351,0.790000
2352,0.370000
2353,0.310000
2354,0.190000
2355,0.240000
2356,0.330000
2357,0.810000
2358,0.420000
2359,0.980000
2360,0.600000
2361,0.840000
2362,0.220000
2363,0.810000
2364,0.230000
2365,0.350000
2366,0.940000
2367,0.670000
2368,0.580000
2369,0.940000
2370,0.870000
2371,0.450000
2372,0.740000
2373,0.260000
2374,0.280000
2375,0.330000
2376,0.900000
2377,0.170000
2378,0.210000
2379,0.070000
2380,0.850000
2381,0.100000
2382,0.320000
2383,0.810000
2384,0.320000
2385,0.250000
2386,0.660000
2387,0.810000
2388,0.450000
2389,0.850000
2390,0.670000
2391,0.930000
2392,0.380000
2393,0.980000
2394,0.940000
2395,0.220000
2396,0.700000
2397,0.020000
2398,0.040000
2399,0.760000
2400,0.770000
2401,0.500000
2402,0.530000
2403,0.550000
2404,0.790000
2405,0.730000
2406,0.910000
2407,0.470000
2408,0.930000
2409,0.910000
2410,0.670000
2411,0.980000
2412,0.430000
2413,0.780000
2414,0.130000
2415,0.280000
2416,0.620000
2417,0.630000
2418,0.650000
2419,0.060000
2420,0.240000
2421,0.070000
2422,0.440000
2423,0.390000
2424,0.900000
2425,0.510000
2426,0.730000
2427,0.130000
2428,0.770000
2429,0.900000
2430,0.980000
2431,0.600000
2432,0.290000
2433,0.390000
2434,0.430000
2435,0.220000
2436,0.680000
2437,0.080000
2438,0.210000
2439,0.880000
2440,0.930000
2441,0.910000
2442,0.050000
2443,0.040000
2444,0.590000
2445,0.820000
2446,0.580000
2447,0.850000
2448,0.170000
2449,0.410000
2450,0.180000
2451,0.400000
2452,0.280000
2453,0.120000
2454,0.790000
2455,0.080000
2456,0.230000
2457,0.620000
2458,0.510000
2459,0.310000
2460,0.950000
2461,0.610000
2462,0.880000
2463,0.960000
2464,0.850000
2465,0.570000
2466,0.900000
2467,0.730000
2468,0.210000
2469,0.840000
2470,0.230000
2471,1.000000
2472,0.440000
2473,0.580000
2474,0.430000
2475,0.260000
2476,0.880000
2477,0.130000
2478,0.200000
2479,0.820000
2480,0.750000
2481,0.130000
2482,0.720000
2483,0.090000
2484,0.430000
2485,0.480000
2486,0.880000
2487,0.150000
2488,0.540000
2489,0.810000
2490,0.290000
2491,0.680000
2492,0.910000
2493,0.960000
2494,0.450000
2495,0.670000
2496,0.210000
2497,0.320000
2498,0.180000
2499,0.920000
2500,0.680000
2501,0.280000
